<?xml version="1.0" encoding="utf-8"?>
<!-- Generator: Adobe Illustrator 16.0.0, SVG Export Plug-In . SVG Version: 6.00 Build 0)  -->
<!DOCTYPE svg PUBLIC "-//W3C//DTD SVG 1.1//EN" "http://www.w3.org/Graphics/SVG/1.1/DTD/svg11.dtd">
<svg version="1.1" id="Layer_1" xmlns="http://www.w3.org/2000/svg" xmlns:xlink="http://www.w3.org/1999/xlink" x="0px" y="0px"
	 width="400px" height="100px" viewBox="0 0 400 100" enable-background="new 0 0 400 100" xml:space="preserve">
<g>
	<path fill-rule="evenodd" clip-rule="evenodd" fill="none" d="M0,81.188C0,54.125,0,27.063,0,0c133.333,0,266.666,0,400,0
		c0,33.333,0,66.667,0,100c-133.333,0-266.667,0-400,0c0-4.291,0-8.582,0-12.872c0.653,0.34,1.306,0.682,1.959,1.021
		c1.716,0.691,3.429,1.978,5.148,1.986c27.871,0.126,55.742,0.124,83.612,0.005c1.747-0.008,3.488-1.228,5.232-1.884
		c4.016-1.942,2.507-4.493,0.788-7.067c-1.187-1.324-2.375-2.647-3.562-3.97c-1.696-2.379-3.392-4.758-5.087-7.136
		c-1.442-1.539-2.884-3.077-4.282-4.569c-22.593,0-44.857-0.056-67.121,0.118c-1.624,0.013-3.234,1.7-4.851,2.609
		c-2.139,2.986-4.278,5.973-6.417,8.96c-1.167,0.978-2.335,1.954-3.502,2.932C1.278,80.486,0.639,80.836,0,81.188z M314.014,86.007
		c-0.96,1.321-1.919,2.644-3.022,4.165c1.333,1.213,2.262,2.057,3.189,2.901c2.855,5.438,6.765,6.171,11.099,2.082
		c1.063-0.126,2.125-0.254,3.188-0.381c14.118,0.014,28.235,0.028,42.354,0.042c0.786,0.008,1.573,0.016,2.36,0.023
		c4.607,4.374,8.454,3.803,11.894-1.767c2.59-2.624,2.982-5.316,0.26-8.106c-1.467-5.531-2.933-11.061-4.399-16.591
		c-2.301-8.267-4.603-16.534-6.902-24.802c-1.521-1.968-3.042-3.938-5.123-6.633c-2.312,1.624-4.305,3.023-6.297,4.424
		c-8.606-0.023-17.212-0.046-25.818-0.07c-2.032-1.305-4.063-2.609-6.962-4.472c-2.089,3.079-4.65,5.453-5.483,8.321
		c-3.282,11.299-6.023,22.755-8.967,34.15C314.928,81.532,314.471,83.77,314.014,86.007z M213.479,92.068
		c3.97,4.261,7.892,4.322,11.218,0.179c0.563-0.045,1.125-0.089,1.688-0.134c8.398,0.184,16.796,0.493,25.195,0.511
		c6.246,0.013,12.492-0.351,18.74-0.547c0.582,0.057,1.162,0.113,1.744,0.172c2.145,3.893,5.539,2.938,8.983,2.384
		c0.868-1.186,1.715-2.344,2.563-3.502c3.273-2.387,3.779-5.018,0.717-7.967c-1.671-5.942-3.342-11.887-5.013-17.83
		c-2.026-7.249-4.053-14.498-6.079-21.747c-1.306-2.662-2.61-5.324-4.44-9.057c-3.121,1.765-5.395,3.052-7.67,4.34
		c-8.252-0.155-16.502-0.31-24.754-0.464c-2.562-0.998-5.122-1.996-7.265-2.83c-4.876,2.291-5.947,6.129-6.935,10.276
		c-2.734,11.493-5.746,22.922-8.649,34.375c-0.33,1.313-0.66,2.625-0.99,3.938C212.848,86.798,213.163,89.433,213.479,92.068z
		 M188.853,71.052c-1.45-1.529-2.899-3.06-4.14-4.369c-23.401,0-46.314,0-69.483,0c-1.26,1.449-2.542,2.923-3.823,4.396
		c-1.854,2.703-3.706,5.406-5.56,8.109c-5.339,2.205-6.453,5.315-3.203,8.942c1.81,1.263,3.61,3.609,5.431,3.625
		c28.011,0.232,56.026,0.204,84.039,0.047c1.521-0.009,3.034-1.68,4.55-2.577c4.998-0.868,1.847-4.435,2.712-7.18
		c-1.742-1.007-3.335-1.928-4.928-2.849c-0.119-0.258-0.144-0.521-0.076-0.796c-0.178-0.412-0.355-0.824-0.533-1.236
		C192.177,75.127,190.515,73.089,188.853,71.052z"/>
	<path fill-rule="evenodd" clip-rule="evenodd" fill="#CACACA" d="M96.739,81.19c1.72,2.574,3.229,5.125-0.79,7.066
		c-1.546-0.373-3.09-1.066-4.636-1.07c-28.23-0.065-56.46-0.063-84.691-0.005c-1.556,0.004-3.109,0.632-4.664,0.969
		C1.306,87.81,0.653,87.468,0,87.128c0-1.979,0-3.96,0-5.94c0.639-0.352,1.278-0.702,1.918-1.054
		c1.886,0.347,3.77,0.988,5.656,0.993C37.296,81.197,67.017,81.184,96.739,81.19z"/>
	<path fill-rule="evenodd" clip-rule="evenodd" fill="#CACACA" d="M102.645,88.13c-3.25-3.627-2.136-6.737,3.203-8.942
		c29.533,0.003,59.067,0.006,88.601,0.009c1.593,0.921,3.186,1.842,4.928,2.849c-0.865,2.745,2.286,6.312-2.713,7.18
		c-1.875-0.363-3.748-1.038-5.622-1.042C161.576,88.115,132.11,88.131,102.645,88.13z"/>
	<path fill-rule="evenodd" clip-rule="evenodd" fill="#717070" d="M370.821,94.817c-14.118-0.014-28.235-0.028-42.354-0.041
		c-0.012-2.551-0.023-5.102-0.034-7.653c0.323-2.259,0.647-4.52,0.972-6.78l0.46-0.13h0.479c1.139-1.229,2.277-2.458,3.462-3.738
		c3.497-0.193,7.042-0.39,10.586-0.585c1.719,1.604,3.438,3.206,5.19,4.841c2.981-3.094,5.652-5.865,8.321-8.637
		c2.121,0.207,4.243,0.413,6.366,0.62c1.257,0.82,2.571,1.679,3.884,2.537C369.043,81.772,369.933,88.294,370.821,94.817z"/>
	<path fill-rule="evenodd" clip-rule="evenodd" fill="#717070" d="M270.32,92.077c-6.248,0.196-12.494,0.56-18.74,0.547
		c-8.399-0.018-16.797-0.327-25.195-0.511c0.302-2.637,0.603-5.272,0.905-7.909c0.249-1.049,0.498-2.1,0.749-3.149
		c0.514-2.284,1.027-4.568,1.542-6.854c1.269-0.883,2.536-1.765,4.65-3.235c1.992,0.636,4.604,1.469,7.217,2.303
		c0.217,1.867,0.434,3.733,0.64,5.507c4.3,0,8.164,0,12.132,0c0.244-2.047,0.451-3.801,0.66-5.556
		c4.175-2.713,8.219-2.409,12.146,0.527C268.123,79.856,269.222,85.966,270.32,92.077z"/>
	<path fill-rule="evenodd" clip-rule="evenodd" fill="#434242" d="M241.448,73.268c-2.612-0.834-5.225-1.667-7.217-2.303
		c-2.114,1.471-3.382,2.353-4.651,3.235c0.323-2.278,0.546-4.574,0.989-6.83c1.897-9.661,3.861-19.311,5.802-28.965
		c8.252,0.155,16.502,0.31,24.754,0.463c1.403,7.176,2.808,14.351,4.21,21.527c0.564,4.45,1.128,8.9,1.69,13.351
		c-3.927-2.937-7.971-3.24-12.146-0.527c-0.001-3.384-0.001-6.769-0.001-10.329c2.212-0.2,4.065-0.368,6.555-0.593
		c-4.669-5.181-8.887-9.86-13.498-14.98c-4.346,5.111-8.305,9.769-12.672,14.906c2.558,0.223,4.279,0.373,6.185,0.539
		C241.448,66.477,241.448,69.874,241.448,73.268z"/>
	<path fill-rule="evenodd" clip-rule="evenodd" fill="#434242" d="M344.392,75.889c-3.544,0.195-7.089,0.392-10.586,0.585
		c-1.185,1.28-2.323,2.51-3.462,3.738c2.15-12.972,4.301-25.944,6.452-38.917c8.606,0.023,17.212,0.046,25.819,0.069
		c1.203,6.356,2.407,12.713,3.611,19.069c0.643,4.938,1.285,9.878,1.927,14.816c-1.313-0.858-2.627-1.717-3.884-2.537
		c-2.123-0.207-4.245-0.413-6.366-0.62c1.376-1.704,2.751-3.408,4.416-5.473c-2.467-0.256-4.194-0.437-6.408-0.666
		c0-5.417,0-10.585,0-15.881c-4.54,0-8.551,0-13.046,0c0,5.558,0,10.739,0,15.974c-2.19,0.227-3.892,0.401-6.665,0.688
		C339.341,70.245,341.866,73.067,344.392,75.889z"/>
	<path fill-rule="evenodd" clip-rule="evenodd" fill="#CACACA" d="M236.371,38.406c-1.94,9.654-3.904,19.304-5.802,28.965
		c-0.443,2.256-0.666,4.552-0.989,6.83c-0.514,2.285-1.027,4.569-1.539,6.854c-2.965-0.393-5.932-0.785-8.898-1.179
		c0.022-0.134,0.045-0.267,0.067-0.4c-1.895,0.25-3.791,0.501-5.687,0.752c2.902-11.454,5.914-22.883,8.648-34.376
		c0.987-4.147,2.059-7.986,6.935-10.276C231.249,36.41,233.81,37.408,236.371,38.406z"/>
	<path fill-rule="evenodd" clip-rule="evenodd" fill="#CACACA" d="M336.796,41.296c-2.151,12.972-4.302,25.945-6.452,38.917h-0.479
		c0,0-0.46,0.13-0.462,0.13c-1.337,0.921-2.672,1.844-3.884,2.68c-2.802-0.398-5.496-0.782-7.948-1.131
		c-0.767-0.912-1.476-1.754-2.184-2.595c2.94-11.396,5.682-22.853,8.964-34.151c0.833-2.869,3.395-5.243,5.483-8.321
		C332.733,38.687,334.764,39.991,336.796,41.296z"/>
	<path fill-rule="evenodd" clip-rule="evenodd" fill="#434242" d="M194.448,79.197c-29.533-0.003-59.067-0.006-88.601-0.009
		c1.854-2.703,3.706-5.406,5.56-8.109c2.127,0.03,4.258-0.009,6.381,0.103c6.163,0.322,12.323,0.705,18.484,1.063
		c3.979,1.732,7.958,3.463,11.938,5.194c0.021-0.574,0.041-1.146,0.062-1.72c5.816-0.375,11.631-0.75,17.635-1.139
		c0.188-1.195,0.362-2.302,0.536-3.407c7.47-0.041,14.94-0.08,22.41-0.121c1.663,2.037,3.325,4.075,4.987,6.112
		c0.177,0.412,0.355,0.824,0.533,1.236C194.304,78.675,194.33,78.939,194.448,79.197z"/>
	<path fill-rule="evenodd" clip-rule="evenodd" fill="#CACACA" d="M267.025,73.747c-0.563-4.45-1.126-8.9-1.69-13.351
		c1.039-0.927,2.572-1.661,3.026-2.815c1.809-4.593,3.278-9.318,4.874-13.994c2.026,7.249,4.053,14.498,6.079,21.747
		c-0.883,1.463-2.028,2.832-2.596,4.406c-1.601,4.427-2.96,8.938-4.415,13.417c-0.071,0.145-0.144,0.29-0.216,0.434
		c0.081-0.135,0.161-0.271,0.242-0.407c4-0.007,7.998-0.013,11.997-0.02c3.063,2.949,2.557,5.58-0.72,7.967
		c-3.85,0.372-7.696,0.745-11.543,1.118c-0.582-0.059-1.162-0.115-1.744-0.172C269.222,85.966,268.123,79.856,267.025,73.747z"/>
	<path fill-rule="evenodd" clip-rule="evenodd" fill="#CACACA" d="M368.153,75.25c-0.642-4.938-1.284-9.878-1.927-14.816
		c0.812,0.098,1.622,0.196,2.741,0.331c1.693-5.747,3.38-11.469,5.066-17.19c2.3,8.268,4.602,16.535,6.902,24.802
		c-2.653,5.602-5.309,11.202-8.651,18.255c5.242-0.669,9.146-1.167,13.051-1.664c2.723,2.79,2.33,5.482-0.261,8.106
		c-1.979,0.005-3.993-0.217-5.929,0.076c-2.026,0.307-3.979,1.105-5.964,1.69c-0.787-0.008-1.574-0.016-2.36-0.023
		C369.933,88.294,369.043,81.772,368.153,75.25z"/>
	<path fill-rule="evenodd" clip-rule="evenodd" fill="#B0B0B0" d="M96.739,81.19c-29.722-0.006-59.443,0.007-89.166-0.063
		c-1.886-0.005-3.77-0.646-5.656-0.993c1.167-0.978,2.334-1.954,3.501-2.932c14.406,0.13,28.811,0.282,43.216,0.331
		c0.822,0.003,1.647-0.846,2.47-1.298c0-0.001-0.05-0.029-0.05-0.029c0.587,0.479,1.175,1.38,1.76,1.377
		c13.454-0.062,26.908-0.223,40.361-0.363C94.365,78.542,95.553,79.866,96.739,81.19z"/>
	<path fill-rule="evenodd" clip-rule="evenodd" fill="#B0B0B0" d="M102.645,88.13c29.465,0.001,58.931-0.016,88.396,0.053
		c1.874,0.004,3.747,0.679,5.622,1.042c-1.515,0.897-3.027,2.568-4.549,2.577c-28.013,0.157-56.027,0.186-84.039-0.047
		C106.255,91.74,104.455,89.393,102.645,88.13z"/>
	<path fill-rule="evenodd" clip-rule="evenodd" fill="#717070" d="M136.272,72.245c-6.161-0.358-12.321-0.741-18.484-1.063
		c-2.123-0.111-4.254-0.072-6.381-0.103c1.281-1.473,2.563-2.946,3.823-4.396c23.169,0,46.082,0,69.483,0
		c1.24,1.31,2.69,2.84,4.14,4.369c-7.47,0.041-14.94,0.08-22.41,0.122c-3.412-0.28-6.832-0.489-10.233-0.865
		c-2.601-0.287-5.178-0.786-7.765-1.191c0.014-0.328,0.027-0.655,0.042-0.982C144.415,69.505,140.344,70.875,136.272,72.245z"/>
	<path fill-rule="evenodd" clip-rule="evenodd" fill="#434242" d="M51.106,76.237c-0.823,0.451-1.648,1.3-2.47,1.297
		c-14.406-0.049-28.811-0.201-43.216-0.331c2.139-2.987,4.277-5.974,6.417-8.96c12.678-0.255,25.356-0.51,38.034-0.767
		c-3.322,0.522-6.633,1.147-9.972,1.531c-1.892,0.217-3.831,0.038-6.135,0.038c0.299,2.059,0.477,3.277,0.699,4.809
		c4.116,0,7.938-0.239,11.706,0.108C47.87,74.119,49.463,75.443,51.106,76.237z"/>
	<path fill-rule="evenodd" clip-rule="evenodd" fill="#B0B0B0" d="M1.959,88.15c1.555-0.337,3.108-0.965,4.664-0.969
		c28.23-0.059,56.46-0.061,84.691,0.005c1.546,0.004,3.089,0.697,4.636,1.07c-1.743,0.657-3.483,1.877-5.23,1.885
		c-27.871,0.119-55.742,0.121-83.612-0.005C5.388,90.127,3.675,88.841,1.959,88.15z"/>
	<path fill-rule="evenodd" clip-rule="evenodd" fill="#717070" d="M49.871,67.478c-12.679,0.255-25.357,0.51-38.035,0.765
		c1.616-0.909,3.227-2.597,4.851-2.609c22.264-0.174,44.528-0.118,67.121-0.118c1.398,1.492,2.84,3.03,4.282,4.569
		c-8.367,0.145-16.733,0.288-25.1,0.433C58.617,69.504,54.244,68.491,49.871,67.478z"/>
	<path fill-rule="evenodd" clip-rule="evenodd" fill="#434242" d="M62.99,70.517c8.366-0.145,16.733-0.288,25.1-0.433
		c1.696,2.378,3.392,4.757,5.087,7.136c-13.453,0.141-26.907,0.302-40.361,0.363c-0.585,0.003-1.173-0.897-1.76-1.377
		c3.581-1.186,7.19-2.301,10.718-3.625C62.359,72.362,62.594,71.228,62.99,70.517z"/>
	<path fill-rule="evenodd" clip-rule="evenodd" fill="#B0B0B0" d="M273.235,43.586c-1.596,4.676-3.065,9.401-4.874,13.994
		c-0.454,1.154-1.987,1.889-3.026,2.815c-1.402-7.176-2.807-14.351-4.21-21.527c2.275-1.287,4.549-2.574,7.67-4.339
		C270.625,38.263,271.93,40.925,273.235,43.586z"/>
	<path fill-rule="evenodd" clip-rule="evenodd" fill="#B0B0B0" d="M374.034,43.575c-1.687,5.722-3.373,11.443-5.066,17.19
		c-1.119-0.135-1.93-0.233-2.741-0.331c-1.204-6.356-2.408-12.713-3.611-19.069c1.991-1.399,3.984-2.799,6.296-4.423
		C370.992,39.637,372.513,41.606,374.034,43.575z"/>
	<path fill-rule="evenodd" clip-rule="evenodd" fill="#B0B0B0" d="M385.336,84.967c-3.904,0.497-7.809,0.995-13.051,1.664
		c3.343-7.053,5.998-12.653,8.651-18.255C382.403,73.907,383.869,79.436,385.336,84.967z"/>
	<path fill-rule="evenodd" clip-rule="evenodd" fill="#B0B0B0" d="M284.327,83.164c-3.999,0.007-7.997,0.013-11.997,0.02
		l-0.026-0.026c1.455-4.479,2.814-8.99,4.415-13.417c0.567-1.574,1.713-2.943,2.596-4.406
		C280.985,71.277,282.656,77.221,284.327,83.164z"/>
	<path fill-rule="evenodd" clip-rule="evenodd" fill="#CACACA" d="M227.29,84.204c-0.303,2.637-0.604,5.272-0.905,7.909
		c-0.563,0.045-1.126,0.089-1.69,0.133c-3.74-0.06-7.479-0.119-11.216-0.178c-0.315-2.635-0.631-5.27-0.947-7.903
		C217.451,84.177,222.37,84.19,227.29,84.204z"/>
	<path fill-rule="evenodd" clip-rule="evenodd" fill="#CACACA" d="M328.433,87.123c0.011,2.552,0.022,5.103,0.034,7.653
		c-1.063,0.126-2.125,0.254-3.188,0.379c-1.087-0.688-2.117-1.835-3.27-1.972c-2.578-0.304-5.216-0.104-7.829-0.109
		c-0.928-0.845-1.856-1.688-3.189-2.901c1.104-1.521,2.063-2.844,3.024-4.165C318.822,86.38,323.628,86.75,328.433,87.123z"/>
	<path fill-rule="evenodd" clip-rule="evenodd" fill="#B0B0B0" d="M328.433,87.123c-4.805-0.372-9.61-0.742-14.417-1.115
		c0.455-2.237,0.912-4.476,1.37-6.712c0.709,0.842,1.418,1.684,2.185,2.596c2.452,0.349,5.146,0.732,7.948,1.131
		c1.212-0.836,2.547-1.759,3.884-2.68C329.08,82.603,328.756,84.864,328.433,87.123z"/>
	<path fill-rule="evenodd" clip-rule="evenodd" fill="#B0B0B0" d="M227.29,84.204c-4.92-0.014-9.839-0.026-14.759-0.039
		c0.331-1.313,0.661-2.625,0.991-3.938c1.896-0.25,3.793-0.501,5.688-0.751c-0.022,0.134-0.045,0.267-0.067,0.4
		c2.967,0.394,5.934,0.786,8.898,1.179C227.788,82.104,227.539,83.155,227.29,84.204z"/>
	<path fill-rule="evenodd" clip-rule="evenodd" fill="#B0B0B0" d="M373.183,94.84c1.984-0.585,3.938-1.384,5.964-1.69
		c1.936-0.293,3.949-0.071,5.929-0.076C381.637,98.643,377.79,99.214,373.183,94.84z"/>
	<path fill-rule="evenodd" clip-rule="evenodd" fill="#B0B0B0" d="M314.181,93.074c2.613,0.005,5.251-0.194,7.829,0.109
		c1.152,0.137,2.183,1.283,3.27,1.972C320.945,99.245,317.036,98.511,314.181,93.074z"/>
	<path fill-rule="evenodd" clip-rule="evenodd" fill="#B0B0B0" d="M213.479,92.068c3.737,0.059,7.476,0.118,11.216,0.178
		C221.37,96.39,217.448,96.329,213.479,92.068z"/>
	<path fill-rule="evenodd" clip-rule="evenodd" fill="#B0B0B0" d="M272.064,92.249c3.847-0.373,7.693-0.746,11.543-1.118
		c-0.845,1.158-1.691,2.316-2.56,3.502C277.604,95.186,274.209,96.141,272.064,92.249z"/>
	<path fill-rule="evenodd" clip-rule="evenodd" fill="#CACACA" d="M194.372,78.401c-0.178-0.412-0.355-0.824-0.533-1.236
		C194.017,77.577,194.194,77.989,194.372,78.401z"/>
	<path fill-rule="evenodd" clip-rule="evenodd" fill="#F4E853" d="M344.392,75.889c-2.525-2.822-5.051-5.645-8.191-9.153
		c2.773-0.287,4.475-0.462,6.665-0.688c0-5.234,0-10.416,0-15.974c4.495,0,8.506,0,13.046,0c0,5.296,0,10.464,0,15.881
		c2.214,0.229,3.941,0.41,6.408,0.666c-1.665,2.064-3.04,3.769-4.416,5.473c-2.669,2.771-5.34,5.543-8.321,8.637
		C347.829,79.095,346.11,77.493,344.392,75.889z"/>
	<path fill-rule="evenodd" clip-rule="evenodd" fill="#F4E853" d="M241.448,73.268c0-3.395,0-6.791,0-10.506
		c-1.905-0.166-3.627-0.316-6.185-0.539c4.367-5.137,8.326-9.795,12.672-14.906c4.611,5.12,8.829,9.799,13.498,14.98
		c-2.489,0.225-4.343,0.393-6.555,0.593c0,3.561,0,6.945,0.001,10.329c-0.209,1.755-0.416,3.509-0.66,5.556
		c-3.968,0-7.832,0-12.132,0C241.882,77.001,241.665,75.135,241.448,73.268z"/>
	<path fill-rule="evenodd" clip-rule="evenodd" fill="#F4E853" d="M136.272,72.245c4.071-1.369,8.143-2.739,12.214-4.109
		c-0.014,0.327-0.027,0.654-0.042,0.982c2.587,0.405,5.164,0.904,7.765,1.191c3.401,0.376,6.821,0.585,10.233,0.865
		c-0.174,1.104-0.348,2.211-0.536,3.406c-6.004,0.389-11.819,0.764-17.635,1.139c-0.021,0.573-0.041,1.146-0.062,1.72
		C144.23,75.708,140.251,73.977,136.272,72.245z"/>
	<path fill-rule="evenodd" clip-rule="evenodd" fill="#B0B0B0" d="M272.33,83.183c-0.081,0.136-0.161,0.272-0.242,0.407
		c0.072-0.144,0.145-0.289,0.216-0.434L272.33,83.183z"/>
	<path fill-rule="evenodd" clip-rule="evenodd" fill="#F4E853" d="M62.99,70.517c-0.396,0.711-0.631,1.845-1.215,2.064
		c-3.528,1.324-7.137,2.439-10.718,3.625c0,0,0.049,0.028,0.049,0.029c-1.643-0.793-3.236-2.117-4.938-2.273
		c-3.767-0.348-7.589-0.108-11.706-0.108c-0.222-1.531-0.4-2.75-0.699-4.809c2.304,0,4.243,0.179,6.135-0.038
		c3.339-0.384,6.65-1.009,9.972-1.531C54.244,68.491,58.617,69.504,62.99,70.517z"/>
</g>
</svg>
